simple_gan_tb.vcd
$date
	Thu Jan 08 16:16:23 2026
$end
$version
	Icarus Verilog
$end
$timescale
	1ps
$end
$scope module simple_gan_tb $end
$var wire 1 ! gen_valid $end
$var wire 16 " gen_image_8 [15:0] $end
$var wire 16 # gen_image_7 [15:0] $end
$var wire 16 $ gen_image_6 [15:0] $end
$var wire 16 % gen_image_5 [15:0] $end
$var wire 16 & gen_image_4 [15:0] $end
$var wire 16 ' gen_image_3 [15:0] $end
$var wire 16 ( gen_image_2 [15:0] $end
$var wire 16 ) gen_image_1 [15:0] $end
$var wire 16 * gen_image_0 [15:0] $end
$var wire 1 + done $end
$var wire 1 , disc_valid $end
$var wire 16 - disc_prob [15:0] $end
$var parameter 32 . CLK_PERIOD $end
$var reg 1 / clk $end
$var reg 16 0 noise_0 [15:0] $end
$var reg 16 1 noise_1 [15:0] $end
$var reg 1 2 rst_n $end
$var reg 1 3 start $end
$var integer 32 4 sample_file_exists [31:0] $end
$scope function q15_to_real $end
$var reg 16 5 q15_val [15:0] $end
$upscope $end
$scope function real_to_q15 $end
$var real 1 6 r_val $end
$upscope $end
$scope module u_dut $end
$var wire 1 / clk $end
$var wire 16 7 noise_0 [15:0] $end
$var wire 16 8 noise_1 [15:0] $end
$var wire 1 2 rst_n $end
$var wire 1 3 start $end
$var wire 16 9 gen_out_8 [15:0] $end
$var wire 16 : gen_out_7 [15:0] $end
$var wire 16 ; gen_out_6 [15:0] $end
$var wire 16 < gen_out_5 [15:0] $end
$var wire 16 = gen_out_4 [15:0] $end
$var wire 16 > gen_out_3 [15:0] $end
$var wire 16 ? gen_out_2 [15:0] $end
$var wire 16 @ gen_out_1 [15:0] $end
$var wire 16 A gen_out_0 [15:0] $end
$var wire 16 B disc_out [15:0] $end
$var parameter 3 C COMPUTE_DISC $end
$var parameter 3 D COMPUTE_GEN $end
$var parameter 3 E DONE_STATE $end
$var parameter 3 F IDLE $end
$var reg 16 G disc_prob [15:0] $end
$var reg 1 , disc_valid $end
$var reg 1 + done $end
$var reg 16 H gen_image_0 [15:0] $end
$var reg 16 I gen_image_1 [15:0] $end
$var reg 16 J gen_image_2 [15:0] $end
$var reg 16 K gen_image_3 [15:0] $end
$var reg 16 L gen_image_4 [15:0] $end
$var reg 16 M gen_image_5 [15:0] $end
$var reg 16 N gen_image_6 [15:0] $end
$var reg 16 O gen_image_7 [15:0] $end
$var reg 16 P gen_image_8 [15:0] $end
$var reg 1 ! gen_valid $end
$var reg 3 Q next_state [2:0] $end
$var reg 3 R state [2:0] $end
$scope module u_discriminator $end
$var wire 16 S image_0 [15:0] $end
$var wire 16 T image_1 [15:0] $end
$var wire 16 U image_2 [15:0] $end
$var wire 16 V image_3 [15:0] $end
$var wire 16 W image_4 [15:0] $end
$var wire 16 X image_5 [15:0] $end
$var wire 16 Y image_6 [15:0] $end
$var wire 16 Z image_7 [15:0] $end
$var wire 16 [ image_8 [15:0] $end
$var wire 16 \ z3_sum [15:0] $end
$var wire 32 ] z3_p2 [31:0] $end
$var wire 32 ^ z3_p1 [31:0] $end
$var wire 32 _ z3_p0 [31:0] $end
$var wire 16 ` z2_2_sum [15:0] $end
$var wire 32 a z2_2_p8 [31:0] $end
$var wire 32 b z2_2_p7 [31:0] $end
$var wire 32 c z2_2_p6 [31:0] $end
$var wire 32 d z2_2_p5 [31:0] $end
$var wire 32 e z2_2_p4 [31:0] $end
$var wire 32 f z2_2_p3 [31:0] $end
$var wire 32 g z2_2_p2 [31:0] $end
$var wire 32 h z2_2_p1 [31:0] $end
$var wire 32 i z2_2_p0 [31:0] $end
$var wire 16 j z2_1_sum [15:0] $end
$var wire 32 k z2_1_p8 [31:0] $end
$var wire 32 l z2_1_p7 [31:0] $end
$var wire 32 m z2_1_p6 [31:0] $end
$var wire 32 n z2_1_p5 [31:0] $end
$var wire 32 o z2_1_p4 [31:0] $end
$var wire 32 p z2_1_p3 [31:0] $end
$var wire 32 q z2_1_p2 [31:0] $end
$var wire 32 r z2_1_p1 [31:0] $end
$var wire 32 s z2_1_p0 [31:0] $end
$var wire 16 t z2_0_sum [15:0] $end
$var wire 32 u z2_0_p8 [31:0] $end
$var wire 32 v z2_0_p7 [31:0] $end
$var wire 32 w z2_0_p6 [31:0] $end
$var wire 32 x z2_0_p5 [31:0] $end
$var wire 32 y z2_0_p4 [31:0] $end
$var wire 32 z z2_0_p3 [31:0] $end
$var wire 32 { z2_0_p2 [31:0] $end
$var wire 32 | z2_0_p1 [31:0] $end
$var wire 32 } z2_0_p0 [31:0] $end
$var wire 16 ~ prob [15:0] $end
$var wire 16 !" h2 [15:0] $end
$var wire 16 "" h1 [15:0] $end
$var wire 16 #" h0 [15:0] $end
$scope module sigmoid_out $end
$var wire 16 $" x [15:0] $end
$var parameter 16 %" HALF $end
$var parameter 16 &" QUART $end
$var parameter 16 '" THREE4 $end
$var reg 16 (" y [15:0] $end
$upscope $end
$scope module tanh_h0 $end
$var wire 16 )" x [15:0] $end
$var wire 16 *" a [15:0] $end
$var parameter 16 +" TH_HIGH $end
$var parameter 16 ," TH_MID $end
$var parameter 16 -" Y_HIGH $end
$var parameter 16 ." Y_MID $end
$var reg 16 /" y [15:0] $end
$upscope $end
$scope module tanh_h1 $end
$var wire 16 0" x [15:0] $end
$var wire 16 1" a [15:0] $end
$var parameter 16 2" TH_HIGH $end
$var parameter 16 3" TH_MID $end
$var parameter 16 4" Y_HIGH $end
$var parameter 16 5" Y_MID $end
$var reg 16 6" y [15:0] $end
$upscope $end
$scope module tanh_h2 $end
$var wire 16 7" x [15:0] $end
$var wire 16 8" a [15:0] $end
$var parameter 16 9" TH_HIGH $end
$var parameter 16 :" TH_MID $end
$var parameter 16 ;" Y_HIGH $end
$var parameter 16 <" Y_MID $end
$var reg 16 =" y [15:0] $end
$upscope $end
$upscope $end
$scope module u_generator $end
$var wire 16 >" noise_0 [15:0] $end
$var wire 16 ?" noise_1 [15:0] $end
$var wire 32 @" z3_8_p2 [31:0] $end
$var wire 32 A" z3_8_p1 [31:0] $end
$var wire 32 B" z3_8_p0 [31:0] $end
$var wire 16 C" z3_8 [15:0] $end
$var wire 32 D" z3_7_p2 [31:0] $end
$var wire 32 E" z3_7_p1 [31:0] $end
$var wire 32 F" z3_7_p0 [31:0] $end
$var wire 16 G" z3_7 [15:0] $end
$var wire 32 H" z3_6_p2 [31:0] $end
$var wire 32 I" z3_6_p1 [31:0] $end
$var wire 32 J" z3_6_p0 [31:0] $end
$var wire 16 K" z3_6 [15:0] $end
$var wire 32 L" z3_5_p2 [31:0] $end
$var wire 32 M" z3_5_p1 [31:0] $end
$var wire 32 N" z3_5_p0 [31:0] $end
$var wire 16 O" z3_5 [15:0] $end
$var wire 32 P" z3_4_p2 [31:0] $end
$var wire 32 Q" z3_4_p1 [31:0] $end
$var wire 32 R" z3_4_p0 [31:0] $end
$var wire 16 S" z3_4 [15:0] $end
$var wire 32 T" z3_3_p2 [31:0] $end
$var wire 32 U" z3_3_p1 [31:0] $end
$var wire 32 V" z3_3_p0 [31:0] $end
$var wire 16 W" z3_3 [15:0] $end
$var wire 32 X" z3_2_p2 [31:0] $end
$var wire 32 Y" z3_2_p1 [31:0] $end
$var wire 32 Z" z3_2_p0 [31:0] $end
$var wire 16 [" z3_2 [15:0] $end
$var wire 32 \" z3_1_p2 [31:0] $end
$var wire 32 ]" z3_1_p1 [31:0] $end
$var wire 32 ^" z3_1_p0 [31:0] $end
$var wire 16 _" z3_1 [15:0] $end
$var wire 32 `" z3_0_p2 [31:0] $end
$var wire 32 a" z3_0_p1 [31:0] $end
$var wire 32 b" z3_0_p0 [31:0] $end
$var wire 16 c" z3_0 [15:0] $end
$var wire 16 d" z2_2_sum [15:0] $end
$var wire 32 e" z2_2_prod1 [31:0] $end
$var wire 32 f" z2_2_prod0 [31:0] $end
$var wire 16 g" z2_1_sum [15:0] $end
$var wire 32 h" z2_1_prod1 [31:0] $end
$var wire 32 i" z2_1_prod0 [31:0] $end
$var wire 16 j" z2_0_sum [15:0] $end
$var wire 32 k" z2_0_prod1 [31:0] $end
$var wire 32 l" z2_0_prod0 [31:0] $end
$var wire 16 m" image_8 [15:0] $end
$var wire 16 n" image_7 [15:0] $end
$var wire 16 o" image_6 [15:0] $end
$var wire 16 p" image_5 [15:0] $end
$var wire 16 q" image_4 [15:0] $end
$var wire 16 r" image_3 [15:0] $end
$var wire 16 s" image_2 [15:0] $end
$var wire 16 t" image_1 [15:0] $end
$var wire 16 u" image_0 [15:0] $end
$var wire 16 v" h2 [15:0] $end
$var wire 16 w" h1 [15:0] $end
$var wire 16 x" h0 [15:0] $end
$scope module tanh_h0 $end
$var wire 16 y" x [15:0] $end
$var wire 16 z" a [15:0] $end
$var parameter 16 {" TH_HIGH $end
$var parameter 16 |" TH_MID $end
$var parameter 16 }" Y_HIGH $end
$var parameter 16 ~" Y_MID $end
$var reg 16 !# y [15:0] $end
$upscope $end
$scope module tanh_h1 $end
$var wire 16 "# x [15:0] $end
$var wire 16 ## a [15:0] $end
$var parameter 16 $# TH_HIGH $end
$var parameter 16 %# TH_MID $end
$var parameter 16 &# Y_HIGH $end
$var parameter 16 '# Y_MID $end
$var reg 16 (# y [15:0] $end
$upscope $end
$scope module tanh_h2 $end
$var wire 16 )# x [15:0] $end
$var wire 16 *# a [15:0] $end
$var parameter 16 +# TH_HIGH $end
$var parameter 16 ,# TH_MID $end
$var parameter 16 -# Y_HIGH $end
$var parameter 16 .# Y_MID $end
$var reg 16 /# y [15:0] $end
$upscope $end
$scope module tanh_out0 $end
$var wire 16 0# x [15:0] $end
$var wire 16 1# a [15:0] $end
$var parameter 16 2# TH_HIGH $end
$var parameter 16 3# TH_MID $end
$var parameter 16 4# Y_HIGH $end
$var parameter 16 5# Y_MID $end
$var reg 16 6# y [15:0] $end
$upscope $end
$scope module tanh_out1 $end
$var wire 16 7# x [15:0] $end
$var wire 16 8# a [15:0] $end
$var parameter 16 9# TH_HIGH $end
$var parameter 16 :# TH_MID $end
$var parameter 16 ;# Y_HIGH $end
$var parameter 16 <# Y_MID $end
$var reg 16 =# y [15:0] $end
$upscope $end
$scope module tanh_out2 $end
$var wire 16 ># x [15:0] $end
$var wire 16 ?# a [15:0] $end
$var parameter 16 @# TH_HIGH $end
$var parameter 16 A# TH_MID $end
$var parameter 16 B# Y_HIGH $end
$var parameter 16 C# Y_MID $end
$var reg 16 D# y [15:0] $end
$upscope $end
$scope module tanh_out3 $end
$var wire 16 E# x [15:0] $end
$var wire 16 F# a [15:0] $end
$var parameter 16 G# TH_HIGH $end
$var parameter 16 H# TH_MID $end
$var parameter 16 I# Y_HIGH $end
$var parameter 16 J# Y_MID $end
$var reg 16 K# y [15:0] $end
$upscope $end
$scope module tanh_out4 $end
$var wire 16 L# x [15:0] $end
$var wire 16 M# a [15:0] $end
$var parameter 16 N# TH_HIGH $end
$var parameter 16 O# TH_MID $end
$var parameter 16 P# Y_HIGH $end
$var parameter 16 Q# Y_MID $end
$var reg 16 R# y [15:0] $end
$upscope $end
$scope module tanh_out5 $end
$var wire 16 S# x [15:0] $end
$var wire 16 T# a [15:0] $end
$var parameter 16 U# TH_HIGH $end
$var parameter 16 V# TH_MID $end
$var parameter 16 W# Y_HIGH $end
$var parameter 16 X# Y_MID $end
$var reg 16 Y# y [15:0] $end
$upscope $end
$scope module tanh_out6 $end
$var wire 16 Z# x [15:0] $end
$var wire 16 [# a [15:0] $end
$var parameter 16 \# TH_HIGH $end
$var parameter 16 ]# TH_MID $end
$var parameter 16 ^# Y_HIGH $end
$var parameter 16 _# Y_MID $end
$var reg 16 `# y [15:0] $end
$upscope $end
$scope module tanh_out7 $end
$var wire 16 a# x [15:0] $end
$var wire 16 b# a [15:0] $end
$var parameter 16 c# TH_HIGH $end
$var parameter 16 d# TH_MID $end
$var parameter 16 e# Y_HIGH $end
$var parameter 16 f# Y_MID $end
$var reg 16 g# y [15:0] $end
$upscope $end
$scope module tanh_out8 $end
$var wire 16 h# x [15:0] $end
$var wire 16 i# a [15:0] $end
$var parameter 16 j# TH_HIGH $end
$var parameter 16 k# TH_MID $end
$var parameter 16 l# Y_HIGH $end
$var parameter 16 m# Y_MID $end
$var reg 16 n# y [15:0] $end
$upscope $end
$upscope $end
$upscope $end
$scope task display_discriminator_output $end
$var real 1 o# prob_real $end
$upscope $end
$scope task display_generator_output $end
$var integer 32 p# col [31:0] $end
$var integer 32 q# idx [31:0] $end
$var real 1 r# pixel_val $end
$var integer 32 s# row [31:0] $end
$upscope $end
$scope task run_test $end
$var reg 16 t# n0 [15:0] $end
$var reg 16 u# n1 [15:0] $end
$var reg 640 v# test_name [639:0] $end
$upscope $end
$upscope $end
$enddefinitions $end
$comment Show the parameter values. $end
$dumpall
b110011001100110 m#
b111111011001000 l#
b100000000000000 k#
b111001100110011 j#
b110011001100110 f#
b111111011001000 e#
b100000000000000 d#
b111001100110011 c#
b110011001100110 _#
b111111011001000 ^#
b100000000000000 ]#
b111001100110011 \#
b110011001100110 X#
b111111011001000 W#
b100000000000000 V#
b111001100110011 U#
b110011001100110 Q#
b111111011001000 P#
b100000000000000 O#
b111001100110011 N#
b110011001100110 J#
b111111011001000 I#
b100000000000000 H#
b111001100110011 G#
b110011001100110 C#
b111111011001000 B#
b100000000000000 A#
b111001100110011 @#
b110011001100110 <#
b111111011001000 ;#
b100000000000000 :#
b111001100110011 9#
b110011001100110 5#
b111111011001000 4#
b100000000000000 3#
b111001100110011 2#
b110011001100110 .#
b111111011001000 -#
b100000000000000 ,#
b111001100110011 +#
b110011001100110 '#
b111111011001000 &#
b100000000000000 %#
b111001100110011 $#
b110011001100110 ~"
b111111011001000 }"
b100000000000000 |"
b111001100110011 {"
b110011001100110 <"
b111111011001000 ;"
b100000000000000 :"
b111001100110011 9"
b110011001100110 5"
b111111011001000 4"
b100000000000000 3"
b111001100110011 2"
b110011001100110 ."
b111111011001000 -"
b100000000000000 ,"
b111001100110011 +"
b110000000000000 '"
b10000000000000 &"
b100000000000000 %"
b0 F
b11 E
b1 D
b10 C
b1010 .
$end
#0
$dumpvars
bx v#
bx u#
bx t#
bx s#
r0 r#
bx q#
bx p#
r0 o#
b100011111011 n#
b100011111011 i#
b100011111011 h#
b110011001100110 g#
b110010111110111 b#
b110010111110111 a#
b1111110100101111 `#
b1011010001 [#
b1111110100101111 Z#
b110011001100110 Y#
b110011101101000 T#
b110011101101000 S#
b1111001100111100 R#
b110011000100 M#
b1111001100111100 L#
b110011001100110 K#
b110001101001101 F#
b110001101001101 E#
b1100011001110 D#
b1100011001110 ?#
b1100011001110 >#
b110011001100110 =#
b101001011101001 8#
b101001011101001 7#
b1110110100110010 6#
b1001011001110 1#
b1110110100110010 0#
b1111000111101010 /#
b111000010110 *#
b1111000111101010 )#
b1100101000011 (#
b1100101000011 ##
b1100101000011 "#
b11100001111011 !#
b11100001111011 z"
b11100001111011 y"
b11100001111011 x"
b1100101000011 w"
b1111000111101010 v"
b1110110100110010 u"
b110011001100110 t"
b1100011001110 s"
b110011001100110 r"
b1111001100111100 q"
b110011001100110 p"
b1111110100101111 o"
b110011001100110 n"
b100011111011 m"
b0 l"
b0 k"
b11100001111011 j"
b0 i"
b0 h"
b1100101000011 g"
b0 f"
b0 e"
b1111000111101010 d"
b1110110100110010 c"
b11111110101101110100010000011010 b"
b11111111101110100010001010110100 a"
b11111111101001011000101010111000 `"
b101001011101001 _"
b100110110110011101101110001 ^"
b100111011110001011000000 ]"
b11111111100001000110101011111100 \"
b1100011001110 ["
b1001110001110000001011101011 Z"
b1110100001001010000101100 Y"
b11111111011101111101111101100100 X"
b110001101001101 W"
b1011001000011101011000110111 V"
b10011001100100011000110011 U"
b11000110100001100001000 T"
b1111001100111100 S"
b11111011111111101111011110111110 R"
b1110000000011001010111010 Q"
b11111111110001110110000110010010 P"
b110011101101000 O"
b1011111010010100100010001111 N"
b1011110010101100011010000 M"
b101110101010001110000000 L"
b1111110100101111 K"
b10001010100011011011110000 J"
b11111110011111110111001100010101 I"
b11111111011000010110110001010100 H"
b110010111110111 G"
b11101111001101101111001011 F"
b1101000111010111000010111 E"
b1000001001000100011101010 D"
b100011111011 C"
b1111001010010100010001101 B"
b10000010010101000110101001 A"
b101111110101000011001110 @"
b0 ?"
b0 >"
b11010 ="
b11010 8"
b11010 7"
b1000000000000000 6"
b1000000000000000 1"
b1000000000000000 0"
b10100011001001 /"
b10100011001001 *"
b10100011001001 )"
b101010010000101 ("
b10100100001011 $"
b10100011001001 #"
b1000000000000000 ""
b11010 !"
b101010010000101 ~
b0 }
b0 |
b0 {
b0 z
b0 y
b0 x
b0 w
b0 v
b0 u
b10100011001001 t
b0 s
b0 r
b0 q
b0 p
b0 o
b0 n
b0 m
b0 l
b0 k
b1000000000000000 j
b0 i
b0 h
b0 g
b0 f
b0 e
b0 d
b0 c
b0 b
b0 a
b11010 `
b11110010100010000110000100111000 _
b11000000000000001000000000000000 ^
b11011010111110 ]
b10100100001011 \
b0 [
b0 Z
b0 Y
b0 X
b0 W
b0 V
b0 U
b0 T
b0 S
b0 R
b0 Q
b0 P
b0 O
b0 N
b0 M
b0 L
b0 K
b0 J
b0 I
b0 H
b0 G
b101010010000101 B
b1110110100110010 A
b110011001100110 @
b1100011001110 ?
b110011001100110 >
b1111001100111100 =
b110011001100110 <
b1111110100101111 ;
b110011001100110 :
b100011111011 9
b0 8
b0 7
r0 6
bx 5
b1 4
03
02
b0 1
b0 0
0/
b0 -
0,
0+
b0 *
b0 )
b0 (
b0 '
b0 &
b0 %
b0 $
b0 #
b0 "
0!
$end
#5000
1/
#10000
0/
#15000
1/
#20000
0/
#25000
1/
#30000
0/
#35000
1/
#40000
0/
#45000
12
1/
#50000
0/
#55000
1/
#60000
0/
#65000
b1 Q
13
b0 5
b1011010011001010111001001101111001000000100100101101110011100000111010101110100 v#
b0 u#
b0 t#
1/
#70000
0/
#75000
b1 R
b10 Q
03
1/
#80000
0/
#85000
b100100001001011 B
b100100001001011 ~
b100100001001011 ("
b1000010010111 \
b1000010010111 $"
b10000000001111011101001100000 _
b1100111101110100 #"
b1100111101110100 /"
b11000010001100 *"
b10110010101011101001101010100 ^
b10110010101100 ""
b10110010101100 6"
b10110010101100 1"
b11111111111100011000001000101010 ]
b1111100100011110 !"
b1111100100011110 ="
b11011100010 8"
b1100111101110100 t
b1100111101110100 )"
b10110010101100 j
b10110010101100 0"
b1111100100011110 `
b1111100100011110 7"
b11 Q
1!
b11100010110000011100000 u
b11111111111111101111101110010001 k
b100000000110110101111111 a
b100011111011 "
b100011111011 P
b100011111011 [
b11110011011110001101100101010100 v
b10111101100011000000111101000 l
b11111100111111000000001100000100 b
b110011001100110 #
b110011001100110 O
b110011001100110 Z
b11111111111111000110010000111000 w
b11111111111010010110000101111000 m
b1010000001110010011110 c
b1111110100101111 $
b1111110100101111 N
b1111110100101111 Y
b11111001000001101101001111000110 x
b10101101111110001110101110100 n
b11111100100000001101000001001100 d
b110011001100110 %
b110011001100110 M
b110011001100110 X
b11111010001000000110000 y
b11100000111111101000 o
b11111111100110010110000001011000 e
b1111001100111100 &
b1111001100111100 L
b1111001100111100 W
b11110100001110101101100010010010 z
b10011111011000101001001111010 p
b11111100011111100110100111101000 f
b110011001100110 '
b110011001100110 K
b110011001100110 V
b11111111011011100101111010001110 {
b11111110000010110010100010010010 q
b11111111101100101010110111011100 g
b1100011001110 (
b1100011001110 J
b1100011001110 U
b11110000111001010100001001001110 |
b10111100111111110100001100000 r
b111111011110010101101000100 h
b110011001100110 )
b110011001100110 I
b110011001100110 T
b1010111110110100110100000 }
b11111111010110011111110101101000 s
b11111110101001010100100111100000 i
b1110110100110010 *
b1110110100110010 H
b1110110100110010 S
b10 R
1/
#90000
0/
#95000
b0 Q
b11 R
1,
b100100001001011 -
b100100001001011 G
1/
#100000
0/
#105000
1+
b0 R
1/
#110000
0/
#115000
0,
0!
0+
r0.564788818359375 o#
r0.070159912109375 r#
b100100001001011 5
b1000 q#
b11 p#
b11 s#
1/
#120000
0/
#125000
1/
#130000
0/
#135000
1/
#140000
0/
#145000
b110111000000 9
b110111000000 m"
b110111000000 n#
b110111000000 i#
b110101110010100 b#
b1111101000110110 ;
b1111101000110110 o"
b1111101000110110 `#
b10111001010 [#
b110110110101111 T#
b1111001101101111 =
b1111001101101111 q"
b1111001101101111 R#
b110010010001 M#
b110100101000100 F#
b1101100000011 ?
b1101100000011 s"
b1101100000011 D#
b1101100000011 ?#
b101001100001011 8#
b1110101110001010 A
b1110101110001010 u"
b1110101110001010 6#
b1010001110110 1#
b110111000000 C"
b110111000000 h#
b110101110010100 G"
b110101110010100 a#
b1111101000110110 K"
b1111101000110110 Z#
b110110110101111 O"
b110110110101111 S#
b1111001101101111 S"
b1111001101101111 L#
b110100101000100 W"
b110100101000100 E#
b1101100000011 ["
b1101100000011 >#
b101001100001011 _"
b101001100001011 7#
b1110101110001010 c"
b1110101110001010 0#
b10000110001010000101011111 B"
b100001000100101111111101001 F"
b10011001010000001101010000 J"
b1101001011001100101010010101 N"
b11111011100100100011100000001010 R"
b1100010100000010111101001101 V"
b1010110100001001000001001001 Z"
b101010111110010000101101011 ^"
b11111110100101000110001110111110 b"
b11111001111001 x"
b11111001111001 !#
b11111001111001 z"
b11000011000101001101110000 A"
b10011101000011000010010000 E"
b11111101110000000110010010110000 I"
b10001101001101001100000000 M"
b10100111101110000001100000 Q"
b11100101110111011011010000 U"
b10101101110110010101000000 Y"
b111011000101010000000000 ]"
b11111111100101110110110011000000 a"
b10010111010000 w"
b10010111010000 (#
b10010111010000 ##
b1111010110111111111110000 @"
b10100111010101001111010000 D"
b11111110011010001001101110100000 H"
b1110111110111110000000000 L"
b11111111011011101000101100010000 P"
b111111110000001001000000 T"
b11111110101000100100100000100000 X"
b11111110110000101000001011100000 \"
b11111111000101111001101111000000 `"
b1101101111010000 v"
b1101101111010000 /#
b10010000110000 *#
b1 Q
b11111001111001 j"
b11111001111001 y"
b10010111010000 g"
b10010111010000 "#
b1101101111010000 d"
b1101101111010000 )#
13
b10000101100000000000000000 k"
b111000011000000000000000 h"
b11111011111011010000000000000000 e"
b100000000000000 1
b100000000000000 8
b100000000000000 ?"
b111010010100000000000000 l"
b101011001010000000000000000 i"
b11111001000001100100000000000000 f"
b100000000000000 0
b100000000000000 7
b100000000000000 >"
b100000000000000 5
b1010000011011110111001101101001011101000110100101110110011001010010000001001110011011110110100101110011011001010010000001011011001100000010111000110101001011000010000000110000001011100011010101011101 v#
b100000000000000 u#
b100000000000000 t#
r0.5 6
1/
#150000
0/
#155000
b1 R
b10 Q
03
1/
#160000
0/
#165000
b100011111001001 B
b100011111001001 ~
b100011111001001 ("
b111110010010 \
b111110010010 $"
b1111110101111000010011010000 _
b1101000000000110 #"
b1101000000000110 /"
b10111111111010 *"
b10110000000100101001111111011 ^
b10110000000101 ""
b10110000000101 6"
b10110000000101 1"
b11111111111100101011101111100001 ]
b1111100110110011 !"
b1111100110110011 ="
b11001001101 8"
b1101000000000110 t
b1101000000000110 )"
b10110000000101 j
b10110000000101 0"
b1111100110110011 `
b1111100110110011 7"
b11 Q
1!
b101011011001100000000000 u
b11111111111111100111000101000000 k
b110001001010001011000000 a
b110111000000 "
b110111000000 P
b110111000000 [
b11111111111110001001010100110000 w
b11111111110100011000000110110000 m
b10100100111001011101100 c
b1111101000110110 $
b1111101000110110 N
b1111101000110110 Y
b11110110001110010001100 y
b11011101011110111010 o
b11111111100110101111101001010110 e
b1111001101101111 &
b1111001101101111 L
b1111001101101111 W
b11111111011000010110100101100011 {
b11111101110111101001100001101101 q
b11111111101010111100110010100110 g
b1101100000011 (
b1101100000011 J
b1101100000011 U
b1011111100101110100100000 }
b11111111010010110101111001001000 s
b11111110100001101100000001100000 i
b1110101110001010 *
b1110101110001010 H
b1110101110001010 S
b10 R
1/
#170000
0/
#175000
b0 Q
b11 R
1,
b100011111001001 -
b100011111001001 G
1/
#180000
0/
#185000
1+
b0 R
1/
#190000
0/
#195000
0,
0!
0+
r0.560821533203125 o#
r0.107421875 r#
b100011111001001 5
b1000 q#
b11 p#
b11 s#
1/
#200000
0/
#205000
1/
#210000
0/
#215000
1/
#220000
0/
#225000
b10000110110 9
b10000110110 m"
b10000110110 n#
b10000110110 i#
b110000001011001 b#
b101010 ;
b101010 o"
b101010 `#
b101010 [#
b110000100100000 T#
b1111001100001011 =
b1111001100001011 q"
b1111001100001011 R#
b110011110101 M#
b101110101010111 F#
b1011010010111 ?
b1011010010111 s"
b1011010010111 D#
b1011010010111 ?#
b101001011001000 8#
b1110111011011000 A
b1110111011011000 u"
b1110111011011000 6#
b1000100101000 1#
b10000110110 C"
b10000110110 h#
b110000001011001 G"
b110000001011001 a#
b101010 K"
b101010 Z#
b110000100100000 O"
b110000100100000 S#
b1111001100001011 S"
b1111001100001011 L#
b101110101010111 W"
b101110101010111 E#
b1011010010111 ["
b1011010010111 >#
b101001011001000 _"
b101001011001000 7#
b1110111011011000 c"
b1110111011011000 0#
b1101100011010011100100100 B"
b11010101110100011010111100 F"
b1111011110110000011000000 J"
b1010101001011001000010001100 N"
b11111100011010111100100110011000 R"
b1001111100110100101010101100 V"
b1000101111010100100100111100 Z"
b100010101110011111101110100 ^"
b11111110110110100010101001001000 b"
b11001001111100 x"
b11001001111100 !#
b11001001111100 z"
b1000001100100111111100010 A"
b110100110010101110011110 E"
b11111111001111101000000101111010 I"
b101111011101111010100000 M"
b111000011000010100010100 Q"
b1001101010001010110010110 U"
b111010011100001100011000 Y"
b10011110111000110000000 ]"
b11111111110111001101100010101000 a"
b110010110110 w"
b110010110110 (#
b110010110110 ##
b11111111100100110010111101000001 @"
b11111111011010111101000010000011 D"
b10110100011000111000110 H"
b11111111100101011101100001000000 L"
b1000000011010000001111 P"
b11111111110001111000101011011100 T"
b10011010110110011111110 X"
b10001100100101001010010 \"
b1100110111001101000100 `"
b100000000011 v"
b100000000011 /#
b100000000011 *#
b1 Q
b11001001111100 j"
b11001001111100 y"
b110010110110 g"
b110010110110 "#
b100000000011 d"
b100000000011 )#
13
b11111101111010100000000000000000 k"
b11111111000111101000000000000000 h"
b100000100110000000000000000 e"
b1100000000000000 1
b1100000000000000 8
b1100000000000000 ?"
b11111111000101101100000000000000 l"
b11111010100110110000000000000000 i"
b110111110011100000000000000 f"
b1100000000000000 0
b1100000000000000 7
b1100000000000000 >"
b1100000000000000 5
b10011100110010101100111011000010111010001101001011101100110010100100000010011100110111101101001011100110110010100100000010110110010110100110000001011100011010100101100001000000010110100110000001011100011010101011101 v#
b1100000000000000 u#
b1100000000000000 t#
r-0.5 6
1/
#230000
0/
#235000
b1 R
b10 Q
03
1/
#240000
0/
#245000
b100100011001110 B
b100100011001110 ~
b100100011001110 ("
b1000110011100 \
b1000110011100 $"
b10000001101110100011011100000 _
b1100111011100100 #"
b1100111011100100 /"
b11000100011100 *"
b10110101010100101001010101011 ^
b10110101010101 ""
b10110101010101 6"
b10110101010101 1"
b11111111111100000100100001110011 ]
b1111100010001001 !"
b1111100010001001 ="
b11101110111 8"
b1100111011100100 t
b1100111011100100 )"
b10110101010101 j
b10110101010101 0"
b1111100010001001 `
b1111100010001001 7"
b11 Q
1!
b1101010010100111000000 u
b11111111111111111000010111100010 k
b1111000011100000111110 a
b10000110110 "
b10000110110 P
b10000110110 [
b11010111010000 w
b10101000101010000 m
b11111111111111011010100111010100 c
b101010 $
b101010 N
b101010 Y
b11111101111000000111100 y
b11100100010111100010 o
b11111111100101111101011001101110 e
b1111001100001011 &
b1111001100001011 L
b1111001100001011 W
b11111111011110110101111101110111 {
b11111110001101111110000100011001 q
b11111111101110011001010101001110 g
b1011010010111 (
b1011010010111 J
b1011010010111 U
b1010000001001101110000000 }
b11111111011010001000101011100000 s
b11111110110000111010111010000000 i
b1110111011011000 *
b1110111011011000 H
b1110111011011000 S
b10 R
1/
#250000
0/
#255000
b0 Q
b11 R
1,
b100100011001110 -
b100100011001110 G
1/
#260000
0/
#265000
1+
b0 R
1/
#270000
0/
#275000
0,
0!
0+
r0.56878662109375 o#
r0.03289794921875 r#
b100100011001110 5
b1000 q#
b11 p#
b11 s#
1/
#280000
0/
#285000
1/
#290000
0/
#295000
1/
#300000
0/
